<define-tag pagetitle>DLA-2166-1 libpam-krb5</define-tag>
<define-tag report_date>2020-04-01</define-tag>
<define-tag secrefs>CVE-2020-10595</define-tag>
<define-tag packages>libpam-krb5</define-tag>
<define-tag isvulnerable>yes</define-tag>
<define-tag fixed>yes</define-tag>
<define-tag fixed-section>no</define-tag>

#use wml::debian::security

