<define-tag pagetitle>DSA-4587-1 ruby2.3</define-tag>
<define-tag report_date>2019-12-17</define-tag>
<define-tag secrefs>CVE-2019-15845 CVE-2019-16201 CVE-2019-16254 CVE-2019-16255</define-tag>
<define-tag packages>ruby2.3</define-tag>
<define-tag isvulnerable>yes</define-tag>
<define-tag fixed>yes</define-tag>
<define-tag fixed-section>no</define-tag>

#use wml::debian::security



</dl>
