<define-tag pagetitle>DLA-1889-1 python3.4</define-tag>
<define-tag report_date>2019-8-17</define-tag>
<define-tag secrefs>CVE-2018-20852</define-tag>
<define-tag packages>python3.4</define-tag>
<define-tag isvulnerable>yes</define-tag>
<define-tag fixed>yes</define-tag>
<define-tag fixed-section>no</define-tag>

#use wml::debian::security

