<define-tag pagetitle>DLA-698-1 qemu</define-tag>
<define-tag report_date>2016-11-3</define-tag>
<define-tag secrefs>CVE-2016-7909 CVE-2016-8909 CVE-2016-8910 CVE-2016-9101 CVE-2016-9102 CVE-2016-9103 CVE-2016-9104 CVE-2016-9105 CVE-2016-9106 Bug#839834 Bug#841950 Bug#841955 Bug#842455 Bug#842463</define-tag>
<define-tag packages>qemu</define-tag>
<define-tag isvulnerable>yes</define-tag>
<define-tag fixed>yes</define-tag>
<define-tag fixed-section>no</define-tag>

#use wml::debian::security

