<define-tag pagetitle>DLA-568-1 wordpress</define-tag>
<define-tag report_date>2016-7-29</define-tag>
<define-tag secrefs>CVE-2016-5387 CVE-2016-5832 CVE-2016-5834 CVE-2016-5835 CVE-2016-5838 CVE-2016-5839 Bug#828225</define-tag>
<define-tag packages>wordpress</define-tag>
<define-tag isvulnerable>yes</define-tag>
<define-tag fixed>yes</define-tag>
<define-tag fixed-section>no</define-tag>

#use wml::debian::security

